{
  "project_info": {
    "project_number": "896779667191",
    "firebase_url": "https://arsen-chat.firebaseio.com",
    "project_id": "arsen-chat",
    "storage_bucket": "arsen-chat.appspot.com"
  },
  "client": [
    {
      "client_info": {
        "mobilesdk_app_id": "1:896779667191:android:f814c074d7846d49",
        "android_client_info": {
          "package_name": "com.example.arsenandroid"
        }
      },
      "oauth_client": [
        {
          "client_id": "896779667191-htnqs8jrpbth0npd8gicl2cbr63nn9f4.apps.googleusercontent.com",
          "client_type": 3
        }
      ],
      "api_key": [
        {
          "current_key": "AIzaSyBSJPO8-k7x_XxVhauwzTI7QKu44p1CqtY"
        }
      ],
      "services": {
        "analytics_service": {
          "status": 1
        },
        "appinvite_service": {
          "status": 1,
          "other_platform_oauth_client": []
        },
        "ads_service": {
          "status": 2
        }
      }
    }
  ],
  "configuration_version": "1"
}